{
    "packages": {
        "classic": {
            "css": true,
            "included": true,
            "namespace": "Ext",
            "required": true,
            "requires": ["ext", "core"],
            "version": "6.2.0.981"
        },
        "cmd": {
            "current": "6.5.0.180",
            "version": "6.5.0.180"
        },
        "core": {
            "css": true,
            "included": true,
            "required": true,
            "requires": ["ext", "classic"],
            "version": "6.2.0.981"
        },
        "ext": {
            "css": true,
            "included": true,
            "license": "gpl",
            "namespace": "Ext",
            "required": true,
            "requires": [],
            "version": "6.2.0.981"
        },
        "font-awesome": {
            "css": true,
            "included": true,
            "namespace": "Ext",
            "required": true,
            "requires": ["ext", "core", "classic", "theme-base", "theme-neutral", "theme-neptune"],
            "theme": "theme-neptune",
            "version": "6.2.0.981"
        },
        "font-ext": {
            "css": true,
            "included": true,
            "namespace": "Ext",
            "required": true,
            "requires": ["ext", "core", "classic", "theme-base", "theme-neutral", "theme-neptune"],
            "theme": "theme-neptune",
            "version": "6.2.0.981"
        },
        "theme-base": {
            "css": true,
            "included": true,
            "namespace": "Ext",
            "required": true,
            "requires": ["ext", "core", "classic"],
            "version": "6.2.0.981"
        },
        "theme-neptune": {
            "css": true,
            "extend": "theme-neutral",
            "included": true,
            "namespace": "Ext",
            "required": true,
            "requires": ["ext", "core", "classic", "theme-base", "theme-neutral"],
            "version": "6.2.0.981"
        },
        "theme-neutral": {
            "css": true,
            "extend": "theme-base",
            "included": true,
            "namespace": "Ext",
            "required": true,
            "requires": ["ext", "core", "classic", "theme-base"],
            "version": "6.2.0.981"
        },
        "theme-triton": {
            "css": true,
            "extend": "theme-neptune",
            "included": true,
            "namespace": "Ext",
            "required": true,
            "requires": ["ext", "core", "classic", "theme-base", "theme-neutral", "theme-neptune", "font-awesome", "font-ext"],
            "version": "6.2.0.981"
        },
        "ux": {
            "css": true,
            "included": true,
            "namespace": "Ext",
            "required": true,
            "requires": ["ext", "core", "classic"],
            "theme": "theme-classic",
            "version": "6.2.0.981"
        }
    },
    "js": [{
        "path": "/sencha-freelance-translation/sencha-project-assignments/app.js"
    }],
    "css": [{
        "exclude": ["fashion"],
        "path": "/sencha-freelance-translation/sencha-project-assignments/resources/senchaProjectAssignments-all_1.css"
    }],
    "cache": {
        "enable": false,
        "deltas": "/sencha-freelance-translation/sencha-project-assignments/deltas"
    },
    "fashion": {
        "inliner": {
            "enable": false
        }
    },
    "name": "SenchaProjectAssignments",
    "version": "1.0.0.0",
    "framework": "ext",
    "loader": {
        "cache": false,
        "cacheParam": "_dc"
    },
    "id": "a50b34ac-d7d3-4f77-92b0-cfccb23833e1",
    "toolkit": "classic",
    "theme": "theme-triton",
    "profile": "classic",
    "hash": "6efa68d718a807ae7b7d7865eb1acb582680596c",
    "resources": {
        "path": "/sencha-freelance-translation/sencha-project-assignments/resources",
        "shared": "/sencha-freelance-translation/resources"
    }
}